<svg viewBox="0 0 20 20" version="1.1" xmlns="http://www.w3.org/2000/svg" xmlns:xlink="http://www.w3.org/1999/xlink">
    <g id="Page-1" stroke="none" stroke-width="1" fill="none" fill-rule="evenodd">
        <g id="icon-shape">
            <path d="M12.2928932,3.70710678 L0,16 L0,20 L4,20 L16.2928932,7.70710678 L12.2928932,3.70710678 Z M13.7071068,2.29289322 L16,0 L20,4 L17.7071068,6.29289322 L13.7071068,2.29289322 Z" id="Combined-Shape"></path>
        </g>
    </g>
</svg>